{
  "user": {
    "class": "User",
    "instance_id": "user",
    "username": "username",
    "creator_box": "user_box",
    "shared_box": "user_box_shared"
  },
  "user_box": {
    "class": "Box",
    "instance_id": "user_box",
    "user_id": "user",
    "title": "default",
    "archived": false
  },
  "user_box_shared": {
    "class": "Box",
    "instance_id": "user_box_shared",
    "user_id": "user",
    "title": "default1",
    "archived": false
  },
   "user1": {
    "class": "User",
    "instance_id": "user1",
    "username": "username",
    "creator_box": "user1_box",
    "shared_box": "user1_box_shared"
  },
  "user1_box": {
    "class": "Box",
    "instance_id": "user1_box",
    "user_id": "user1",
    "title": "default",
    "archived": false
  },
  "user1_box_shared": {
    "class": "Box",
    "instance_id": "user1_box_shared",
    "user_id": "user1",
    "title": "default1",
    "archived": false
  },
  "task1": {
    "class": "Task",
    "creation_time": "2018-08-24T19:23:54.354897",
    "last_update_time": "2018-08-24T19:23:54.354897",
    "status": "PENDING",
    "periodical": false,
    "instance_id": "task1",
    "rule_str": null,
    "title": "task",
    "user_id": "user",
    "priority": "NONE",
    "parent_id": null,
    "deadline": null,
    "archived": false
  },
  "task1-box-rel": {
    "class": "TaskBoxRelation",
    "user_id": "user",
    "box_id": "user_box",
    "instance_id": "task1-box-rel",
    "task_id": "task1",
    "archived": false
  },
  "task1-perm": {
    "class": "Permission",
    "user_id": "user",
    "access_level": "CREATOR",
    "instance_id": "task1-perm",
    "task_id": "task1",
    "archived": false
  },

  "task2": {
    "class": "Task",
    "creation_time": "2018-08-24T19:23:54.354897",
    "last_update_time": "2018-08-24T19:23:54.354897",
    "status": "PENDING",
    "periodical": false,
    "instance_id": "task2",
    "rule_str": null,
    "title": "task",
    "user_id": "user",
    "priority": "NONE",
    "parent_id": null,
    "deadline": "2000-01-01T00:00:00",
    "archived": false
  },
  "task2-perm": {
    "class": "Permission",
    "user_id": "user",
    "access_level": "CREATOR",
    "instance_id": "task2-perm",
    "task_id": "task2",
    "archived": false
  },
  "task2-box-rel": {
    "class": "TaskBoxRelation",
    "user_id": "user",
    "box_id": "user_box",
    "instance_id": "task2-box-rel",
    "task_id": "task2",
    "archived": false
  },
  "task2-dead": {
    "class": "Term",
    "term_type": "DEADLINE",
    "instance_id": "task2-dead",
    "relative_delta": null,
    "task_id": "1",
    "term": "2000-01-01T00:00:00",
    "archived": false,
    "active": true
  },
  "task2-rem": {
        "class": "Term",
        "term_type": "REMINDER",
        "instance_id": "task2-rem",
        "relative_delta": {
            "months": 0,
            "years": 0,
            "minutes": 0,
            "hours": 0,
            "days": 1
        },
        "task_id": "task2",
        "term": "1999-12-31T00:00:00",
        "archived": false,
        "active": true
    },

  "task3": {
    "class": "Task",
    "creation_time": "2018-08-24T19:23:54.354897",
    "last_update_time": "2018-08-24T19:23:54.354897",
    "status": "PENDING",
    "periodical": false,
    "instance_id": "task3",
    "rule_str": null,
    "title": "task",
    "user_id": "user",
    "priority": "NONE",
    "parent_id": "task2",
    "deadline": "1999-12-31T00:00:00",
    "archived": false
  },
  "task3-perm": {
    "class": "Permission",
    "user_id": "user",
    "access_level": "CREATOR",
    "instance_id": "task3-perm",
    "task_id": "task3",
    "archived": false
  },
  "task3-dead": {
    "class": "Term",
    "term_type": "DEADLINE",
    "instance_id": "task3-dead",
    "relative_delta": null,
    "task_id": "task3",
    "term": "1999-12-31T00:00:00",
    "archived": false,
    "active": true
  },

  "task4": {
    "class": "Task",
    "creation_time": "2018-08-24T19:23:54.354897",
    "last_update_time": "2018-08-24T19:23:54.354897",
    "status": "PENDING",
    "periodical": false,
    "instance_id": "task4",
    "rule_str": null,
    "title": "task",
    "user_id": "user",
    "priority": "NONE",
    "parent_id": null,
    "deadline": null,
    "archived": false
  },
  "task4-perm": {
    "class": "Permission",
    "user_id": "user",
    "access_level": "CREATOR",
    "instance_id": "task4-perm",
    "task_id": "task4",
    "archived": false
  },
  "task4-box-rel": {
    "class": "TaskBoxRelation",
    "user_id": "user",
    "box_id": "user_box",
    "instance_id": "task4-box-rel",
    "task_id": "task4",
    "archived": false
  },

  "task5": {
    "class": "Task",
    "creation_time": "2018-08-24T19:23:54.354897",
    "last_update_time": "2018-08-24T19:23:54.354897",
    "status": "PENDING",
    "periodical": false,
    "instance_id": "task5",
    "rule_str": null,
    "title": "task",
    "user_id": "user",
    "priority": "NONE",
    "parent_id": "task4",
    "deadline": "2000-01-01T00:00:00",
    "archived": false
  },
  "task5-perm": {
    "class": "Permission",
    "user_id": "user",
    "access_level": "CREATOR",
    "instance_id": "task5-perm",
    "task_id": "task5",
    "archived": false
  },
  "task5-dead": {
    "class": "Term",
    "term_type": "DEADLINE",
    "instance_id": "task5-dead",
    "relative_delta": null,
    "task_id": "task5",
    "term": "2000-01-01T00:00:00",
    "archived": false,
    "active": true
  },

    "task6": {
    "class": "Task",
    "creation_time": "2018-08-24T19:23:54.354897",
    "last_update_time": "2018-08-24T19:23:54.354897",
    "status": "PENDING",
    "periodical": true,
    "instance_id": "task6",
    "rule_str": "DTSTART:20000101T000000\nRRULE:FREQ=DAILY;COUNT=3",
    "title": "task",
    "user_id": "user",
    "priority": "NONE",
    "parent_id": null,
    "deadline": "2000-01-01T00:00:00",
    "archived": false
  },
  "task6-perm": {
    "class": "Permission",
    "user_id": "user",
    "access_level": "CREATOR",
    "instance_id": "task6-perm",
    "task_id": "task4",
    "archived": false
  },
  "task6-box-rel": {
    "class": "TaskBoxRelation",
    "user_id": "user",
    "box_id": "user_box",
    "instance_id": "task6-box-rel",
    "task_id": "task6",
    "archived": false
  },
    "task6-dead": {
    "class": "Term",
    "term_type": "DEADLINE",
    "instance_id": "task6-dead",
    "relative_delta": null,
    "task_id": "task6",
    "term": "2000-01-01T00:00:00",
    "archived": false,
    "active": true
  },
    "task7": {
    "class": "Task",
    "creation_time": "2018-08-24T19:23:54.354897",
    "last_update_time": "2018-08-24T19:23:54.354897",
    "status": "PENDING",
    "periodical": false,
    "instance_id": "task7",
    "rule_str": null,
    "title": "task",
    "user_id": "user",
    "priority": "NONE",
    "parent_id": null,
    "deadline": null,
    "archived": false
  },
  "task7-box-rel": {
    "class": "TaskBoxRelation",
    "user_id": "user",
    "box_id": "user_box",
    "instance_id": "task7-box-rel",
    "task_id": "task7",
    "archived": false
  },
  "task7-perm": {
    "class": "Permission",
    "user_id": "user",
    "access_level": "CREATOR",
    "instance_id": "task7-perm",
    "task_id": "task7",
    "archived": false
  },
  "task7-box-rel1": {
    "class": "TaskBoxRelation",
    "user_id": "user",
    "box_id": "user1_box",
    "instance_id": "task7-box-rel1",
    "task_id": "task7",
    "archived": false
  },
  "task7-perm1": {
    "class": "Permission",
    "user_id": "user1",
    "access_level": "WATCHER",
    "instance_id": "task7-perm1",
    "task_id": "task7",
    "archived": false
  }
}